
    {
        "taxNum": "2345",
        "orderLeadDays": 23,
        "person": {
            "firstName": "Anil Kumar",
            "lastName": "Vellingiri",
            "phoneNumbers": [
                {
                    "areaCode": "91",
                    "phoneNum": "9343405666"
                },
                {
                    "areaCode": "91",
                    "phoneNum": "9245681366"
                }
            ]
        },
        "company": null
    }

